Transaction_Type,FC_Recorded_Date,Scrape_Type,County
MTG,2020-10-03,data,Bergen
MTG,2020-10-03,pdf,Bergen
MTG,2020-10-04,data,Bergen
MTG,2020-10-04,pdf,Bergen
MTG,2020-10-10,data,Bergen
MTG,2020-10-10,pdf,Bergen
MTG,2020-10-11,data,Bergen
MTG,2020-10-11,pdf,Bergen
MTG,2020-10-12,data,Bergen
MTG,2020-10-12,pdf,Bergen
MTG,2020-10-13,data,Bergen
MTG,2020-10-13,pdf,Bergen
MTG,2020-10-16,data,Bergen
MTG,2020-10-16,pdf,Bergen
MTG,2020-10-17,data,Bergen
MTG,2020-10-17,pdf,Bergen
MTG,2020-10-18,data,Bergen
MTG,2020-10-18,pdf,Bergen
MTG,2020-10-22,data,Bergen
MTG,2020-10-22,pdf,Bergen
MTG,2020-10-23,data,Bergen
MTG,2020-10-23,pdf,Bergen
MTG,2020-10-24,data,Bergen
MTG,2020-10-24,pdf,Bergen
MTG,2020-10-25,data,Bergen
MTG,2020-10-25,pdf,Bergen
MTG,2020-10-26,data,Bergen
MTG,2020-10-26,pdf,Bergen
MTG,2020-10-27,data,Bergen
MTG,2020-10-27,pdf,Bergen
MTG,2020-10-28,data,Bergen
MTG,2020-10-28,pdf,Bergen
MTG,2020-10-29,data,Bergen
MTG,2020-10-29,pdf,Bergen
MTG,2020-10-30,data,Bergen
MTG,2020-10-30,pdf,Bergen
MTG,2020-10-31,data,Bergen
MTG,2020-10-31,pdf,Bergen
MTG,2020-11-01,data,Bergen
MTG,2020-11-01,pdf,Bergen
MTG,2020-11-02,data,Bergen
MTG,2020-11-02,pdf,Bergen
MTG,2020-11-03,data,Bergen
MTG,2020-11-03,pdf,Bergen
MTG,2020-11-04,data,Bergen
MTG,2020-11-04,pdf,Bergen
MTG,2020-11-05,data,Bergen
MTG,2020-11-05,pdf,Bergen
MTG,2020-11-06,data,Bergen
MTG,2020-11-06,pdf,Bergen
MTG,2020-11-07,data,Bergen
MTG,2020-11-07,pdf,Bergen
MTG,2020-11-08,data,Bergen
MTG,2020-11-08,pdf,Bergen
MTG,2020-11-09,data,Bergen
MTG,2020-11-09,pdf,Bergen
MTG,2020-11-10,data,Bergen
MTG,2020-11-10,pdf,Bergen
MTG,2020-11-11,data,Bergen
MTG,2020-11-11,pdf,Bergen
MTG,2020-11-13,data,Bergen
MTG,2020-11-13,pdf,Bergen
MTG,2020-11-14,data,Bergen
MTG,2020-11-14,pdf,Bergen
MTG,2020-11-15,data,Bergen
MTG,2020-11-15,pdf,Bergen
MTG,2020-11-16,data,Bergen
MTG,2020-11-16,pdf,Bergen
MTG,2020-11-17,data,Bergen
MTG,2020-11-17,pdf,Bergen
MTG,2020-11-18,data,Bergen
MTG,2020-11-18,pdf,Bergen
MTG,2020-11-19,data,Bergen
MTG,2020-11-19,pdf,Bergen
MTG,2020-11-20,data,Bergen
MTG,2020-11-20,pdf,Bergen
MTG,2020-11-21,data,Bergen
MTG,2020-11-21,pdf,Bergen
MTG,2020-11-22,data,Bergen
MTG,2020-11-22,pdf,Bergen
MTG,2020-11-23,data,Bergen
MTG,2020-11-23,pdf,Bergen
MTG,2020-11-24,data,Bergen
MTG,2020-11-24,pdf,Bergen
MTG,2020-11-25,data,Bergen
MTG,2020-11-25,pdf,Bergen
MTG,2020-11-26,data,Bergen
MTG,2020-11-26,pdf,Bergen
MTG,2020-11-27,data,Bergen
MTG,2020-11-27,pdf,Bergen
MTG,2020-11-28,data,Bergen
MTG,2020-11-28,pdf,Bergen
MTG,2020-11-29,data,Bergen
MTG,2020-11-29,pdf,Bergen
MTG,2020-11-30,data,Bergen
MTG,2020-11-30,pdf,Bergen
MTG,2020-12-01,data,Bergen
MTG,2020-12-01,pdf,Bergen
MTG,2020-12-02,data,Bergen
MTG,2020-12-02,pdf,Bergen
MTG,2020-12-03,data,Bergen
MTG,2020-12-03,pdf,Bergen
MTG,2020-12-04,data,Bergen
MTG,2020-12-04,pdf,Bergen
MTG,2020-12-05,data,Bergen
MTG,2020-12-05,pdf,Bergen
MTG,2020-12-06,data,Bergen
MTG,2020-12-06,pdf,Bergen
MTG,2020-12-07,data,Bergen
MTG,2020-12-07,pdf,Bergen
MTG,2020-12-08,data,Bergen
MTG,2020-12-08,pdf,Bergen
MTG,2020-12-10,data,Bergen
MTG,2020-12-10,pdf,Bergen
MTG,2020-12-11,data,Bergen
MTG,2020-12-11,pdf,Bergen
MTG,2020-12-12,data,Bergen
MTG,2020-12-12,pdf,Bergen
MTG,2020-12-13,data,Bergen
MTG,2020-12-13,pdf,Bergen
MTG,2020-12-14,data,Bergen
MTG,2020-12-14,pdf,Bergen
MTG,2020-12-15,data,Bergen
MTG,2020-12-15,pdf,Bergen
MTG,2020-12-16,data,Bergen
MTG,2020-12-16,pdf,Bergen
MTG,2020-12-17,data,Bergen
MTG,2020-12-17,pdf,Bergen
MTG,2020-12-18,data,Bergen
MTG,2020-12-18,pdf,Bergen
MTG,2020-12-19,data,Bergen
MTG,2020-12-19,pdf,Bergen
MTG,2020-12-20,data,Bergen
MTG,2020-12-20,pdf,Bergen
MTG,2020-12-21,data,Bergen
MTG,2020-12-21,pdf,Bergen
MTG,2020-12-22,data,Bergen
MTG,2020-12-22,pdf,Bergen
MTG,2020-12-23,data,Bergen
MTG,2020-12-23,pdf,Bergen
MTG,2020-12-24,data,Bergen
MTG,2020-12-24,pdf,Bergen
MTG,2020-12-25,data,Bergen
MTG,2020-12-25,pdf,Bergen
MTG,2020-12-26,data,Bergen
MTG,2020-12-26,pdf,Bergen
MTG,2020-12-27,data,Bergen
MTG,2020-12-27,pdf,Bergen
MTG,2020-12-28,data,Bergen
MTG,2020-12-28,pdf,Bergen
MTG,2020-12-29,data,Bergen
MTG,2020-12-29,pdf,Bergen
MTG,2020-12-30,data,Bergen
MTG,2020-12-30,pdf,Bergen
MTG,2020-12-31,data,Bergen
MTG,2020-12-31,pdf,Bergen
MTG,2021-01-01,data,Bergen
MTG,2021-01-01,pdf,Bergen
MTG,2021-01-02,data,Bergen
MTG,2021-01-02,pdf,Bergen
MTG,2021-01-03,data,Bergen
MTG,2021-01-03,pdf,Bergen
MTG,2021-01-04,data,Bergen
MTG,2021-01-04,pdf,Bergen
MTG,2021-01-05,data,Bergen
MTG,2021-01-05,pdf,Bergen
MTG,2021-01-06,data,Bergen
MTG,2021-01-06,pdf,Bergen
MTG,2021-01-07,data,Bergen
MTG,2021-01-07,pdf,Bergen
MTG,2021-01-08,data,Bergen
MTG,2021-01-08,pdf,Bergen
MTG,2021-01-09,data,Bergen
MTG,2021-01-09,pdf,Bergen
MTG,2021-01-10,data,Bergen
MTG,2021-01-10,pdf,Bergen
MTG,2021-01-11,data,Bergen
MTG,2021-01-11,pdf,Bergen
MTG,2021-01-15,data,Bergen
MTG,2021-01-15,pdf,Bergen
MTG,2021-01-16,data,Bergen
MTG,2021-01-16,pdf,Bergen
MTG,2021-01-17,data,Bergen
MTG,2021-01-17,pdf,Bergen
MTG,2021-01-18,data,Bergen
MTG,2021-01-18,pdf,Bergen
MTG,2021-01-19,data,Bergen
MTG,2021-01-19,pdf,Bergen
MTG,2021-01-21,data,Bergen
MTG,2021-01-21,pdf,Bergen
MTG,2021-01-22,data,Bergen
MTG,2021-01-22,pdf,Bergen
MTG,2021-01-23,data,Bergen
MTG,2021-01-23,pdf,Bergen
MTG,2021-01-24,data,Bergen
MTG,2021-01-24,pdf,Bergen
MTG,2021-01-25,data,Bergen
MTG,2021-01-25,pdf,Bergen
MTG,2021-01-26,data,Bergen
MTG,2021-01-26,pdf,Bergen
MTG,2021-01-27,data,Bergen
MTG,2021-01-27,pdf,Bergen
MTG,2021-01-28,data,Bergen
MTG,2021-01-28,pdf,Bergen
MTG,2021-01-29,data,Bergen
MTG,2021-01-29,pdf,Bergen
MTG,2021-01-30,data,Bergen
MTG,2021-01-30,pdf,Bergen
MTG,2021-01-31,data,Bergen
MTG,2021-01-31,pdf,Bergen
MTG,2021-02-01,data,Bergen
MTG,2021-02-01,pdf,Bergen
MTG,2021-02-02,data,Bergen
MTG,2021-02-02,pdf,Bergen
MTG,2021-02-06,data,Bergen
MTG,2021-02-06,pdf,Bergen
MTG,2021-02-07,data,Bergen
MTG,2021-02-07,pdf,Bergen
MTG,2021-02-13,data,Bergen
MTG,2021-02-13,pdf,Bergen
MTG,2021-02-14,data,Bergen
MTG,2021-02-14,pdf,Bergen
MTG,2021-02-15,data,Bergen
MTG,2021-02-15,pdf,Bergen
MTG,2021-02-20,data,Bergen
MTG,2021-02-20,pdf,Bergen
MTG,2021-02-21,data,Bergen
MTG,2021-02-21,pdf,Bergen
MTG,2021-02-27,data,Bergen
MTG,2021-02-27,pdf,Bergen
MTG,2021-02-28,data,Bergen
MTG,2021-02-28,pdf,Bergen
MTG,2021-03-06,data,Bergen
MTG,2021-03-06,pdf,Bergen
MTG,2021-03-07,data,Bergen
MTG,2021-03-07,pdf,Bergen
MTG,2021-03-13,data,Bergen
MTG,2021-03-13,pdf,Bergen
MTG,2021-03-14,data,Bergen
MTG,2021-03-14,pdf,Bergen
MTG,2021-03-15,data,Bergen
MTG,2021-03-15,pdf,Bergen
MTG,2021-03-16,data,Bergen
MTG,2021-03-16,pdf,Bergen
MTG,2021-03-17,data,Bergen
MTG,2021-03-17,pdf,Bergen
MTG,2021-05-17,data,Bergen
MTG,2021-05-17,pdf,Bergen
MTG,2021-05-18,data,Bergen
MTG,2021-05-18,pdf,Bergen
MTG,2021-05-19,data,Bergen
MTG,2021-05-19,pdf,Bergen
MTG,2021-05-20,data,Bergen
MTG,2021-05-20,pdf,Bergen
MTG,2021-05-21,data,Bergen
MTG,2021-05-21,pdf,Bergen
MTG,2021-05-24,data,Bergen
MTG,2021-05-24,pdf,Bergen
MTG,2021-05-25,data,Bergen
MTG,2021-05-25,pdf,Bergen
MTG,2021-05-26,data,Bergen
MTG,2021-05-26,pdf,Bergen
MTG,2021-05-28,data,Bergen
MTG,2021-05-28,pdf,Bergen
MTG,2021-06-01,data,Bergen
MTG,2021-06-01,pdf,Bergen
MTG,2021-06-03,data,Bergen
MTG,2021-06-03,pdf,Bergen
MTG,2021-06-04,data,Bergen
MTG,2021-06-04,pdf,Bergen
MTG,2021-06-07,data,Bergen
MTG,2021-06-07,pdf,Bergen
MTG,2021-06-08,data,Bergen
MTG,2021-06-08,pdf,Bergen
MTG,2021-06-10,data,Bergen
MTG,2021-06-10,pdf,Bergen
MTG,2021-06-15,data,Bergen
MTG,2021-06-15,pdf,Bergen
MTG,2021-06-16,data,Bergen
MTG,2021-06-16,pdf,Bergen
MTG,2021-06-17,data,Bergen
MTG,2021-06-17,pdf,Bergen
MTG,2021-06-21,data,Bergen
MTG,2021-06-21,pdf,Bergen
MTG,2021-06-22,data,Bergen
MTG,2021-06-22,pdf,Bergen
MTG,2021-06-23,data,Bergen
MTG,2021-06-23,pdf,Bergen
MTG,2021-06-24,data,Bergen
MTG,2021-06-24,pdf,Bergen
MTG,2021-06-25,data,Bergen
MTG,2021-06-25,pdf,Bergen
MTG,2021-06-28,data,Bergen
MTG,2021-06-28,pdf,Bergen
MTG,2021-06-29,data,Bergen
MTG,2021-06-29,pdf,Bergen
MTG,2021-06-30,data,Bergen
MTG,2021-06-30,pdf,Bergen
MTG,2021-07-02,data,Bergen
MTG,2021-07-02,pdf,Bergen
MTG,2021-07-06,data,Bergen
MTG,2021-07-06,pdf,Bergen
MTG,2021-07-07,data,Bergen
MTG,2021-07-07,pdf,Bergen
MTG,2021-07-08,data,Bergen
MTG,2021-07-08,pdf,Bergen
MTG,2021-07-09,data,Bergen
MTG,2021-07-09,pdf,Bergen
MTG,2021-07-12,data,Bergen
MTG,2021-07-12,pdf,Bergen
MTG,2021-07-13,data,Bergen
MTG,2021-07-13,pdf,Bergen
MTG,2021-07-14,data,Bergen
MTG,2021-07-14,pdf,Bergen
MTG,2021-07-15,data,Bergen
MTG,2021-07-15,pdf,Bergen
MTG,2021-07-19,data,Bergen
MTG,2021-07-19,pdf,Bergen
MTG,2021-07-20,data,Bergen
MTG,2021-07-20,pdf,Bergen
MTG,2021-07-21,data,Bergen
MTG,2021-07-21,pdf,Bergen
MTG,2021-07-22,data,Bergen
MTG,2021-07-22,pdf,Bergen
MTG,2021-07-23,data,Bergen
MTG,2021-07-23,pdf,Bergen
MTG,2021-07-26,data,Bergen
MTG,2021-07-26,pdf,Bergen
MTG,2021-07-27,data,Bergen
MTG,2021-07-27,pdf,Bergen
MTG,2021-07-28,data,Bergen
MTG,2021-07-28,pdf,Bergen
MTG,2021-07-29,data,Bergen
MTG,2021-07-29,pdf,Bergen
MTG,2021-08-02,data,Bergen
MTG,2021-08-02,pdf,Bergen
MTG,2021-08-03,data,Bergen
MTG,2021-08-03,pdf,Bergen
MTG,2021-08-04,data,Bergen
MTG,2021-08-04,pdf,Bergen
MTG,2021-08-09,data,Bergen
MTG,2021-08-09,pdf,Bergen
MTG,2021-08-11,data,Bergen
MTG,2021-08-11,pdf,Bergen
MTG,2021-08-12,data,Bergen
MTG,2021-08-12,pdf,Bergen
MTG,2021-08-17,data,Bergen
MTG,2021-08-17,pdf,Bergen
MTG,2021-08-18,data,Bergen
MTG,2021-08-18,pdf,Bergen
MTG,2021-08-20,data,Bergen
MTG,2021-08-20,pdf,Bergen
MTG,2021-08-23,data,Bergen
MTG,2021-08-23,pdf,Bergen
MTG,2021-08-24,data,Bergen
MTG,2021-08-24,pdf,Bergen
MTG,2021-08-25,data,Bergen
MTG,2021-08-25,pdf,Bergen
MTG,2021-08-27,data,Bergen
MTG,2021-08-27,pdf,Bergen
MTG,2021-08-30,data,Bergen
MTG,2021-08-30,pdf,Bergen
MTG,2021-08-31,data,Bergen
MTG,2021-08-31,pdf,Bergen
MTG,2021-11-18,data,Bergen
MTG,2021-11-18,pdf,Bergen
MTG,2021-11-19,data,Bergen
MTG,2021-11-19,pdf,Bergen
MTG,2021-11-20,data,Bergen
MTG,2021-11-20,pdf,Bergen
MTG,2021-11-21,data,Bergen
MTG,2021-11-21,pdf,Bergen
MTG,2021-11-22,data,Bergen
MTG,2021-11-22,pdf,Bergen
MTG,2021-11-23,data,Bergen
MTG,2021-11-23,pdf,Bergen
MTG,2021-11-24,data,Bergen
MTG,2021-11-24,pdf,Bergen
MTG,2021-11-25,data,Bergen
MTG,2021-11-25,pdf,Bergen
MTG,2021-11-26,data,Bergen
MTG,2021-11-26,pdf,Bergen
MTG,2021-11-27,data,Bergen
MTG,2021-11-27,pdf,Bergen
MTG,2021-11-28,data,Bergen
MTG,2021-11-28,pdf,Bergen
MTG,2021-11-29,data,Bergen
MTG,2021-11-29,pdf,Bergen
MTG,2021-11-30,data,Bergen
MTG,2021-11-30,pdf,Bergen
