Transaction_Type,FC_Recorded_Date,Scrape_Type,County
RLS,2020-04-07,data,Lee
RLS,2020-04-07,pdf,Lee
RLS,2020-04-08,data,Lee
RLS,2020-04-08,pdf,Lee
RLS,2020-04-09,data,Lee
RLS,2020-04-09,pdf,Lee
RLS,2020-04-10,data,Lee
RLS,2020-04-10,pdf,Lee
RLS,2020-04-11,data,Lee
RLS,2020-04-11,pdf,Lee
RLS,2020-04-12,data,Lee
RLS,2020-04-12,pdf,Lee
RLS,2020-04-13,data,Lee
RLS,2020-04-13,pdf,Lee
RLS,2020-04-14,data,Lee
RLS,2020-04-14,pdf,Lee
RLS,2020-04-15,data,Lee
RLS,2020-04-15,pdf,Lee
RLS,2020-04-16,data,Lee
RLS,2020-04-16,pdf,Lee
RLS,2020-04-17,data,Lee
RLS,2020-04-17,pdf,Lee
RLS,2020-04-18,data,Lee
RLS,2020-04-18,pdf,Lee
RLS,2020-04-19,data,Lee
RLS,2020-04-19,pdf,Lee
RLS,2020-04-20,data,Lee
RLS,2020-04-20,pdf,Lee
RLS,2020-04-21,data,Lee
RLS,2020-04-21,pdf,Lee
RLS,2020-04-22,data,Lee
RLS,2020-04-22,pdf,Lee
RLS,2020-04-23,data,Lee
RLS,2020-04-23,pdf,Lee
RLS,2020-04-24,data,Lee
RLS,2020-04-24,pdf,Lee
RLS,2020-04-25,data,Lee
RLS,2020-04-25,pdf,Lee
RLS,2020-04-26,data,Lee
RLS,2020-04-26,pdf,Lee
RLS,2020-04-27,data,Lee
RLS,2020-04-27,pdf,Lee
RLS,2020-04-28,data,Lee
RLS,2020-04-28,pdf,Lee
RLS,2020-04-29,data,Lee
RLS,2020-04-29,pdf,Lee
RLS,2020-04-30,data,Lee
RLS,2020-04-30,pdf,Lee
SAT,2020-01-01,data,Lee
SAT,2020-01-01,pdf,Lee
SAT,2020-01-02,data,Lee
SAT,2020-01-02,pdf,Lee
SAT,2020-01-03,data,Lee
SAT,2020-01-03,pdf,Lee
SAT,2020-01-04,data,Lee
SAT,2020-01-04,pdf,Lee
SAT,2020-01-05,data,Lee
SAT,2020-01-05,pdf,Lee
SAT,2020-01-06,data,Lee
SAT,2020-01-06,pdf,Lee
SAT,2020-01-07,data,Lee
SAT,2020-01-07,pdf,Lee
SAT,2020-01-08,data,Lee
SAT,2020-01-08,pdf,Lee
SAT,2020-01-09,data,Lee
SAT,2020-01-09,pdf,Lee
SAT,2020-01-10,data,Lee
SAT,2020-01-10,pdf,Lee
SAT,2020-01-11,data,Lee
SAT,2020-01-11,pdf,Lee
SAT,2020-01-12,data,Lee
SAT,2020-01-12,pdf,Lee
SAT,2020-01-13,data,Lee
SAT,2020-01-13,pdf,Lee
SAT,2020-01-14,data,Lee
SAT,2020-01-14,pdf,Lee
SAT,2020-01-15,data,Lee
SAT,2020-01-15,pdf,Lee
SAT,2020-01-16,data,Lee
SAT,2020-01-16,pdf,Lee
SAT,2020-01-17,data,Lee
SAT,2020-01-17,pdf,Lee
SAT,2020-01-18,data,Lee
SAT,2020-01-18,pdf,Lee
SAT,2020-01-19,data,Lee
SAT,2020-01-19,pdf,Lee
SAT,2020-01-20,data,Lee
SAT,2020-01-20,pdf,Lee
SAT,2020-01-21,data,Lee
SAT,2020-01-21,pdf,Lee
SAT,2020-01-22,data,Lee
SAT,2020-01-22,pdf,Lee
SAT,2020-01-23,data,Lee
SAT,2020-01-23,pdf,Lee
SAT,2020-01-24,data,Lee
SAT,2020-01-24,pdf,Lee
SAT,2020-01-25,data,Lee
SAT,2020-01-25,pdf,Lee
SAT,2020-01-26,data,Lee
SAT,2020-01-26,pdf,Lee
SAT,2020-01-27,data,Lee
SAT,2020-01-27,pdf,Lee
SAT,2020-01-28,data,Lee
SAT,2020-01-28,pdf,Lee
SAT,2020-01-29,data,Lee
SAT,2020-01-29,pdf,Lee
SAT,2020-01-30,data,Lee
SAT,2020-01-30,pdf,Lee
SAT,2020-01-31,data,Lee
SAT,2020-01-31,pdf,Lee
SAT,2020-02-01,data,Lee
SAT,2020-02-01,pdf,Lee
SAT,2020-02-02,data,Lee
SAT,2020-02-02,pdf,Lee
SAT,2020-02-03,data,Lee
SAT,2020-02-03,pdf,Lee
SAT,2020-02-04,data,Lee
SAT,2020-02-04,pdf,Lee
SAT,2020-02-05,data,Lee
SAT,2020-02-05,pdf,Lee
SAT,2020-02-06,data,Lee
SAT,2020-02-06,pdf,Lee
SAT,2020-02-07,data,Lee
SAT,2020-02-07,pdf,Lee
SAT,2020-02-08,data,Lee
SAT,2020-02-08,pdf,Lee
SAT,2020-02-09,data,Lee
SAT,2020-02-09,pdf,Lee
SAT,2020-02-10,data,Lee
SAT,2020-02-10,pdf,Lee
SAT,2020-02-11,data,Lee
SAT,2020-02-11,pdf,Lee
SAT,2020-02-12,data,Lee
SAT,2020-02-12,pdf,Lee
SAT,2020-02-13,data,Lee
SAT,2020-02-13,pdf,Lee
SAT,2020-02-14,data,Lee
SAT,2020-02-14,pdf,Lee
SAT,2020-02-15,data,Lee
SAT,2020-02-15,pdf,Lee
SAT,2020-02-16,data,Lee
SAT,2020-02-16,pdf,Lee
SAT,2020-02-17,data,Lee
SAT,2020-02-17,pdf,Lee
SAT,2020-02-18,data,Lee
SAT,2020-02-18,pdf,Lee
SAT,2020-02-19,data,Lee
SAT,2020-02-19,pdf,Lee
SAT,2020-02-20,data,Lee
SAT,2020-02-20,pdf,Lee
SAT,2020-02-21,data,Lee
SAT,2020-02-21,pdf,Lee
SAT,2020-02-22,data,Lee
SAT,2020-02-22,pdf,Lee
SAT,2020-02-23,data,Lee
SAT,2020-02-23,pdf,Lee
SAT,2020-02-24,data,Lee
SAT,2020-02-24,pdf,Lee
SAT,2020-02-25,data,Lee
SAT,2020-02-25,pdf,Lee
SAT,2020-02-26,data,Lee
SAT,2020-02-26,pdf,Lee
SAT,2020-02-27,data,Lee
SAT,2020-02-27,pdf,Lee
SAT,2020-02-28,data,Lee
SAT,2020-02-28,pdf,Lee
SAT,2020-02-29,data,Lee
SAT,2020-02-29,pdf,Lee
SAT,2020-03-01,data,Lee
SAT,2020-03-01,pdf,Lee
SAT,2020-03-02,data,Lee
SAT,2020-03-02,pdf,Lee
SAT,2020-03-03,data,Lee
SAT,2020-03-03,pdf,Lee
SAT,2020-03-04,data,Lee
SAT,2020-03-04,pdf,Lee
SAT,2020-03-05,data,Lee
SAT,2020-03-05,pdf,Lee
SAT,2020-03-06,data,Lee
SAT,2020-03-06,pdf,Lee
SAT,2020-03-07,data,Lee
SAT,2020-03-07,pdf,Lee
SAT,2020-03-08,data,Lee
SAT,2020-03-08,pdf,Lee
SAT,2020-03-09,data,Lee
SAT,2020-03-09,pdf,Lee
SAT,2020-03-10,data,Lee
SAT,2020-03-10,pdf,Lee
SAT,2020-03-11,data,Lee
SAT,2020-03-11,pdf,Lee
SAT,2020-03-12,data,Lee
SAT,2020-03-12,pdf,Lee
SAT,2020-03-13,data,Lee
SAT,2020-03-13,pdf,Lee
SAT,2020-03-14,data,Lee
SAT,2020-03-14,pdf,Lee
SAT,2020-03-15,data,Lee
SAT,2020-03-15,pdf,Lee
SAT,2020-03-16,data,Lee
SAT,2020-03-16,pdf,Lee
SAT,2020-03-17,data,Lee
SAT,2020-03-17,pdf,Lee
SAT,2020-03-18,data,Lee
SAT,2020-03-18,pdf,Lee
SAT,2020-03-19,data,Lee
SAT,2020-03-19,pdf,Lee
SAT,2020-03-20,data,Lee
SAT,2020-03-20,pdf,Lee
SAT,2020-03-21,data,Lee
SAT,2020-03-21,pdf,Lee
SAT,2020-03-22,data,Lee
SAT,2020-03-22,pdf,Lee
SAT,2020-03-23,data,Lee
SAT,2020-03-23,pdf,Lee
SAT,2020-03-24,data,Lee
SAT,2020-03-24,pdf,Lee
SAT,2020-03-25,data,Lee
SAT,2020-03-25,pdf,Lee
SAT,2020-03-26,data,Lee
SAT,2020-03-26,pdf,Lee
SAT,2020-03-27,data,Lee
SAT,2020-03-27,pdf,Lee
SAT,2020-03-28,data,Lee
SAT,2020-03-28,pdf,Lee
SAT,2020-03-29,data,Lee
SAT,2020-03-29,pdf,Lee
SAT,2020-03-30,data,Lee
SAT,2020-03-30,pdf,Lee
SAT,2020-03-31,data,Lee
SAT,2020-03-31,pdf,Lee
SAT,2020-04-01,data,Lee
SAT,2020-04-01,pdf,Lee
SAT,2020-04-02,data,Lee
SAT,2020-04-02,pdf,Lee
SAT,2020-04-03,data,Lee
SAT,2020-04-03,pdf,Lee
SAT,2020-04-04,data,Lee
SAT,2020-04-04,pdf,Lee
SAT,2020-04-05,data,Lee
SAT,2020-04-05,pdf,Lee
SAT,2020-04-06,data,Lee
SAT,2020-04-06,pdf,Lee
SAT,2020-04-07,data,Lee
SAT,2020-04-07,pdf,Lee
SAT,2020-04-08,data,Lee
SAT,2020-04-08,pdf,Lee
SAT,2020-04-09,data,Lee
SAT,2020-04-09,pdf,Lee
SAT,2020-04-10,data,Lee
SAT,2020-04-10,pdf,Lee
SAT,2020-04-11,data,Lee
SAT,2020-04-11,pdf,Lee
SAT,2020-04-12,data,Lee
SAT,2020-04-12,pdf,Lee
SAT,2020-04-13,data,Lee
SAT,2020-04-13,pdf,Lee
SAT,2020-04-14,data,Lee
SAT,2020-04-14,pdf,Lee
SAT,2020-04-15,data,Lee
SAT,2020-04-15,pdf,Lee
SAT,2020-04-16,data,Lee
SAT,2020-04-16,pdf,Lee
SAT,2020-04-17,data,Lee
SAT,2020-04-17,pdf,Lee
SAT,2020-04-18,data,Lee
SAT,2020-04-18,pdf,Lee
SAT,2020-04-19,data,Lee
SAT,2020-04-19,pdf,Lee
SAT,2020-04-20,data,Lee
SAT,2020-04-20,pdf,Lee
SAT,2020-04-21,data,Lee
SAT,2020-04-21,pdf,Lee
SAT,2020-04-22,data,Lee
SAT,2020-04-22,pdf,Lee
SAT,2020-04-23,data,Lee
SAT,2020-04-23,pdf,Lee
SAT,2020-04-24,data,Lee
SAT,2020-04-24,pdf,Lee
SAT,2020-04-25,data,Lee
SAT,2020-04-25,pdf,Lee
SAT,2020-04-26,data,Lee
SAT,2020-04-26,pdf,Lee
SAT,2020-04-27,data,Lee
SAT,2020-04-27,pdf,Lee
SAT,2020-04-28,data,Lee
SAT,2020-04-28,pdf,Lee
SAT,2020-04-29,data,Lee
SAT,2020-04-29,pdf,Lee
SAT,2020-04-30,data,Lee
SAT,2020-04-30,pdf,Lee
DEED,2020-01-01,data,Lee
DEED,2020-01-01,pdf,Lee
DEED,2020-01-02,data,Lee
DEED,2020-01-02,pdf,Lee
DEED,2020-01-03,data,Lee
DEED,2020-01-03,pdf,Lee
DEED,2020-01-04,data,Lee
DEED,2020-01-04,pdf,Lee
DEED,2020-01-05,data,Lee
DEED,2020-01-05,pdf,Lee
DEED,2020-01-06,data,Lee
DEED,2020-01-06,pdf,Lee
DEED,2020-01-07,data,Lee
DEED,2020-01-07,pdf,Lee
DEED,2020-01-08,data,Lee
DEED,2020-01-08,pdf,Lee
DEED,2020-01-09,data,Lee
DEED,2020-01-09,pdf,Lee
DEED,2020-01-10,data,Lee
DEED,2020-01-10,pdf,Lee
DEED,2020-01-11,data,Lee
DEED,2020-01-11,pdf,Lee
DEED,2020-01-12,data,Lee
DEED,2020-01-12,pdf,Lee
DEED,2020-01-13,data,Lee
DEED,2020-01-13,pdf,Lee
DEED,2020-01-14,data,Lee
DEED,2020-01-14,pdf,Lee
DEED,2020-01-15,data,Lee
DEED,2020-01-15,pdf,Lee
DEED,2020-01-16,data,Lee
DEED,2020-01-16,pdf,Lee
DEED,2020-01-17,data,Lee
DEED,2020-01-17,pdf,Lee
DEED,2020-01-18,data,Lee
DEED,2020-01-18,pdf,Lee
DEED,2020-01-19,data,Lee
DEED,2020-01-19,pdf,Lee
DEED,2020-01-20,data,Lee
DEED,2020-01-20,pdf,Lee
DEED,2020-01-21,data,Lee
DEED,2020-01-21,pdf,Lee
DEED,2020-01-22,data,Lee
DEED,2020-01-22,pdf,Lee
DEED,2020-01-23,data,Lee
DEED,2020-01-23,pdf,Lee
DEED,2020-01-24,data,Lee
DEED,2020-01-24,pdf,Lee
DEED,2020-01-25,data,Lee
DEED,2020-01-25,pdf,Lee
DEED,2020-01-26,data,Lee
DEED,2020-01-26,pdf,Lee
DEED,2020-01-27,data,Lee
DEED,2020-01-27,pdf,Lee
DEED,2020-01-28,data,Lee
DEED,2020-01-28,pdf,Lee
DEED,2020-01-29,data,Lee
DEED,2020-01-29,pdf,Lee
DEED,2020-01-30,data,Lee
DEED,2020-01-30,pdf,Lee
DEED,2020-01-31,data,Lee
DEED,2020-01-31,pdf,Lee
DEED,2020-02-01,data,Lee
DEED,2020-02-01,pdf,Lee
DEED,2020-02-02,data,Lee
DEED,2020-02-02,pdf,Lee
DEED,2020-02-03,data,Lee
DEED,2020-02-03,pdf,Lee
DEED,2020-02-04,data,Lee
DEED,2020-02-04,pdf,Lee
DEED,2020-02-05,data,Lee
DEED,2020-02-05,pdf,Lee
DEED,2020-02-06,data,Lee
DEED,2020-02-06,pdf,Lee
DEED,2020-02-07,data,Lee
DEED,2020-02-07,pdf,Lee
DEED,2020-02-08,data,Lee
DEED,2020-02-08,pdf,Lee
DEED,2020-02-09,data,Lee
DEED,2020-02-09,pdf,Lee
DEED,2020-02-10,data,Lee
DEED,2020-02-10,pdf,Lee
DEED,2020-02-11,data,Lee
DEED,2020-02-11,pdf,Lee
DEED,2020-02-12,data,Lee
DEED,2020-02-12,pdf,Lee
DEED,2020-02-13,data,Lee
DEED,2020-02-13,pdf,Lee
DEED,2020-02-14,data,Lee
DEED,2020-02-14,pdf,Lee
DEED,2020-02-15,data,Lee
DEED,2020-02-15,pdf,Lee
DEED,2020-02-16,data,Lee
DEED,2020-02-16,pdf,Lee
DEED,2020-02-17,data,Lee
DEED,2020-02-17,pdf,Lee
DEED,2020-02-18,data,Lee
DEED,2020-02-18,pdf,Lee
DEED,2020-02-19,data,Lee
DEED,2020-02-19,pdf,Lee
DEED,2020-02-20,data,Lee
DEED,2020-02-20,pdf,Lee
DEED,2020-02-21,data,Lee
DEED,2020-02-21,pdf,Lee
DEED,2020-02-22,data,Lee
DEED,2020-02-22,pdf,Lee
DEED,2020-02-23,data,Lee
DEED,2020-02-23,pdf,Lee
DEED,2020-02-24,data,Lee
DEED,2020-02-24,pdf,Lee
