County,FC_Recorded_Date,Transaction_Type,Scrape_Type
suffolk,2020-12-31,ASM,pdf
suffolk,2020-12-31,MTG,pdf
suffolk,2020-12-30,ASM,pdf
suffolk,2020-12-30,MTG,pdf
suffolk,2020-12-29,ASM,pdf
suffolk,2020-12-29,MTG,pdf
suffolk,2020-12-28,MTG,pdf
suffolk,2020-12-28,ASM,pdf
suffolk,2020-12-24,ASM,pdf
suffolk,2020-12-24,MTG,pdf
suffolk,2020-12-23,MTG,pdf
suffolk,2020-12-23,ASM,pdf
suffolk,2020-12-22,MTG,pdf
suffolk,2020-12-22,ASM,pdf
suffolk,2020-12-21,ASM,pdf
suffolk,2020-12-21,MTG,pdf
suffolk,2020-12-18,MTG,pdf
suffolk,2020-12-18,ASM,pdf
suffolk,2020-12-16,ASM,pdf
suffolk,2020-12-16,MTG,pdf
suffolk,2020-12-15,MTG,pdf
suffolk,2020-12-15,ASM,pdf
suffolk,2020-12-14,ASM,pdf
suffolk,2020-12-14,MTG,pdf
suffolk,2020-12-11,MTG,pdf
suffolk,2020-12-11,ASM,pdf
suffolk,2020-12-10,ASM,pdf
suffolk,2020-12-10,MTG,pdf
suffolk,2020-12-09,MTG,pdf
suffolk,2020-12-09,ASM,pdf
suffolk,2020-12-08,MTG,pdf
suffolk,2020-12-08,ASM,pdf
suffolk,2020-12-07,ASM,pdf
suffolk,2020-12-07,MTG,pdf
suffolk,2020-12-04,ASM,pdf
suffolk,2020-12-04,MTG,pdf
suffolk,2020-12-03,MTG,pdf
suffolk,2020-12-03,ASM,pdf
suffolk,2020-12-02,MTG,pdf
suffolk,2020-12-02,ASM,pdf
suffolk,2020-12-01,ASM,pdf
suffolk,2020-12-01,MTG,pdf
suffolk,2020-11-30,MTG,pdf
suffolk,2020-11-30,ASM,pdf
suffolk,2020-11-27,ASM,pdf
suffolk,2020-11-27,MTG,pdf
suffolk,2020-11-25,ASM,pdf
suffolk,2020-11-25,MTG,pdf
suffolk,2020-11-24,ASM,pdf
suffolk,2020-11-24,MTG,pdf
suffolk,2020-11-23,ASM,pdf
suffolk,2020-11-23,MTG,pdf
suffolk,2020-11-20,ASM,pdf
suffolk,2020-11-20,MTG,pdf
suffolk,2020-11-19,MTG,pdf
suffolk,2020-11-19,ASM,pdf
suffolk,2020-11-18,ASM,pdf
suffolk,2020-11-18,MTG,pdf
suffolk,2020-11-17,ASM,pdf
suffolk,2020-11-17,MTG,pdf
suffolk,2020-11-16,ASM,pdf
suffolk,2020-11-16,MTG,pdf
suffolk,2020-11-13,MTG,pdf
suffolk,2020-11-13,ASM,pdf
suffolk,2020-11-12,MTG,pdf
suffolk,2020-11-12,ASM,pdf
suffolk,2020-11-10,MTG,pdf
suffolk,2020-11-10,ASM,pdf
suffolk,2020-11-09,MTG,pdf
suffolk,2020-11-09,ASM,pdf
suffolk,2020-11-06,ASM,pdf
suffolk,2020-11-06,MTG,pdf
suffolk,2020-11-05,ASM,pdf
suffolk,2020-11-05,MTG,pdf
suffolk,2020-11-04,MTG,pdf
suffolk,2020-11-04,ASM,pdf
suffolk,2020-11-03,MTG,pdf
suffolk,2020-11-03,ASM,pdf
suffolk,2020-11-02,ASM,pdf
suffolk,2020-11-02,MTG,pdf
suffolk,2020-10-30,ASM,pdf
suffolk,2020-10-30,MTG,pdf
suffolk,2020-10-29,MTG,pdf
suffolk,2020-10-29,ASM,pdf
suffolk,2020-10-28,ASM,pdf
suffolk,2020-10-28,MTG,pdf
suffolk,2020-10-27,ASM,pdf
suffolk,2020-10-27,MTG,pdf
suffolk,2020-10-26,MTG,pdf
suffolk,2020-10-26,ASM,pdf
suffolk,2020-10-23,ASM,pdf
suffolk,2020-10-23,MTG,pdf
suffolk,2020-10-22,MTG,pdf
suffolk,2020-10-22,ASM,pdf
suffolk,2020-10-21,ASM,pdf
suffolk,2020-10-21,MTG,pdf
suffolk,2020-10-20,MTG,pdf
suffolk,2020-10-20,ASM,pdf
suffolk,2020-10-19,MTG,pdf
suffolk,2020-10-19,ASM,pdf
suffolk,2020-10-16,MTG,pdf
suffolk,2020-10-16,ASM,pdf
suffolk,2020-10-15,ASM,pdf
suffolk,2020-10-15,MTG,pdf
suffolk,2020-10-14,ASM,pdf
suffolk,2020-10-14,MTG,pdf
suffolk,2020-10-13,MTG,pdf
suffolk,2020-10-13,ASM,pdf
suffolk,2020-10-09,ASM,pdf
suffolk,2020-10-09,MTG,pdf
suffolk,2020-10-08,ASM,pdf
suffolk,2020-10-08,MTG,pdf
suffolk,2020-10-07,MTG,pdf
suffolk,2020-10-07,ASM,pdf
suffolk,2020-10-06,ASM,pdf
suffolk,2020-10-06,MTG,pdf
suffolk,2020-10-05,ASM,pdf
suffolk,2020-10-05,MTG,pdf
suffolk,2020-10-02,MTG,pdf
suffolk,2020-10-02,ASM,pdf
suffolk,2020-10-01,ASM,pdf
suffolk,2020-10-01,MTG,pdf
suffolk,2020-09-30,ASM,pdf
suffolk,2020-09-30,MTG,pdf
suffolk,2020-09-29,ASM,pdf
suffolk,2020-09-29,MTG,pdf
suffolk,2020-09-28,MTG,pdf
suffolk,2020-09-28,ASM,pdf
suffolk,2020-09-25,MTG,pdf
suffolk,2020-09-25,ASM,pdf
suffolk,2020-09-24,MTG,pdf
suffolk,2020-09-24,ASM,pdf
suffolk,2020-09-23,MTG,pdf
suffolk,2020-09-23,ASM,pdf
suffolk,2020-09-22,MTG,pdf
suffolk,2020-09-22,ASM,pdf
suffolk,2020-09-21,MTG,pdf
suffolk,2020-09-21,ASM,pdf
suffolk,2020-09-18,ASM,pdf
suffolk,2020-09-18,MTG,pdf
suffolk,2020-09-17,ASM,pdf
suffolk,2020-09-17,MTG,pdf
suffolk,2020-09-16,ASM,pdf
suffolk,2020-09-16,MTG,pdf
suffolk,2020-09-15,ASM,pdf
suffolk,2020-09-15,MTG,pdf
suffolk,2020-09-14,MTG,pdf
suffolk,2020-09-14,ASM,pdf
suffolk,2020-09-11,ASM,pdf
suffolk,2020-09-11,MTG,pdf
suffolk,2020-09-10,ASM,pdf
suffolk,2020-09-10,MTG,pdf
suffolk,2020-09-09,ASM,pdf
suffolk,2020-09-09,MTG,pdf
suffolk,2020-09-08,ASM,pdf
suffolk,2020-09-08,MTG,pdf
suffolk,2020-09-04,MTG,pdf
suffolk,2020-09-04,ASM,pdf
suffolk,2020-09-03,MTG,pdf
suffolk,2020-09-03,ASM,pdf
suffolk,2020-09-02,MTG,pdf
suffolk,2020-09-02,ASM,pdf
suffolk,2020-09-01,ASM,pdf
suffolk,2020-09-01,MTG,pdf
suffolk,2020-08-31,MTG,pdf
suffolk,2020-08-31,ASM,pdf
suffolk,2020-08-28,ASM,pdf
suffolk,2020-08-28,MTG,pdf
suffolk,2020-08-27,MTG,pdf
suffolk,2020-08-27,ASM,pdf
suffolk,2020-08-26,ASM,pdf
suffolk,2020-08-26,MTG,pdf
suffolk,2020-08-25,MTG,pdf
suffolk,2020-08-25,ASM,pdf
suffolk,2020-08-24,ASM,pdf
suffolk,2020-08-24,MTG,pdf
suffolk,2020-08-21,ASM,pdf
suffolk,2020-08-21,MTG,pdf
suffolk,2020-08-20,MTG,pdf
suffolk,2020-08-20,ASM,pdf
suffolk,2020-08-19,ASM,pdf
suffolk,2020-08-19,MTG,pdf
suffolk,2020-08-18,MTG,pdf
suffolk,2020-08-18,ASM,pdf
suffolk,2020-08-17,ASM,pdf
suffolk,2020-08-17,MTG,pdf
suffolk,2020-08-14,MTG,pdf
suffolk,2020-08-14,ASM,pdf
suffolk,2020-08-13,MTG,pdf
suffolk,2020-08-13,ASM,pdf
suffolk,2020-08-12,ASM,pdf
suffolk,2020-08-12,MTG,pdf
suffolk,2020-08-11,ASM,pdf
suffolk,2020-08-11,MTG,pdf
suffolk,2020-08-10,MTG,pdf
suffolk,2020-08-10,ASM,pdf
suffolk,2020-08-07,MTG,pdf
suffolk,2020-08-07,ASM,pdf
suffolk,2020-08-06,MTG,pdf
suffolk,2020-08-06,ASM,pdf
suffolk,2020-08-05,MTG,pdf
suffolk,2020-08-05,ASM,pdf
suffolk,2020-08-04,MTG,pdf
suffolk,2020-08-04,ASM,pdf
suffolk,2020-08-03,MTG,pdf
suffolk,2020-08-03,ASM,pdf
suffolk,2020-07-31,ASM,pdf
suffolk,2020-07-31,MTG,pdf
suffolk,2020-07-30,ASM,pdf
suffolk,2020-07-30,MTG,pdf
suffolk,2020-07-29,MTG,pdf
suffolk,2020-07-29,ASM,pdf
suffolk,2020-07-28,MTG,pdf
suffolk,2020-07-28,ASM,pdf
suffolk,2020-07-27,ASM,pdf
suffolk,2020-07-27,MTG,pdf
suffolk,2020-07-24,MTG,pdf
suffolk,2020-07-24,ASM,pdf
suffolk,2020-07-23,MTG,pdf
suffolk,2020-07-23,ASM,pdf
suffolk,2020-07-22,MTG,pdf
suffolk,2020-07-22,ASM,pdf
suffolk,2020-07-21,ASM,pdf
suffolk,2020-07-21,MTG,pdf
suffolk,2020-07-20,MTG,pdf
suffolk,2020-07-20,ASM,pdf
suffolk,2020-07-17,MTG,pdf
suffolk,2020-07-17,ASM,pdf
suffolk,2020-07-16,ASM,pdf
suffolk,2020-07-16,MTG,pdf
suffolk,2020-07-15,ASM,pdf
suffolk,2020-07-15,MTG,pdf
suffolk,2020-07-14,ASM,pdf
suffolk,2020-07-14,MTG,pdf
suffolk,2020-07-13,ASM,pdf
suffolk,2020-07-13,MTG,pdf
suffolk,2020-07-10,ASM,pdf
suffolk,2020-07-10,MTG,pdf
suffolk,2020-07-09,MTG,pdf
suffolk,2020-07-09,ASM,pdf
suffolk,2020-07-08,MTG,pdf
suffolk,2020-07-08,ASM,pdf
suffolk,2020-07-07,MTG,pdf
suffolk,2020-07-07,ASM,pdf
suffolk,2020-07-06,ASM,pdf
suffolk,2020-07-06,MTG,pdf
suffolk,2020-07-03,ASM,pdf
suffolk,2020-07-03,MTG,pdf
suffolk,2020-07-02,ASM,pdf
suffolk,2020-07-02,MTG,pdf
suffolk,2020-07-01,ASM,pdf
suffolk,2020-07-01,MTG,pdf
suffolk,2020-06-30,ASM,pdf
suffolk,2020-06-30,MTG,pdf
suffolk,2020-06-29,ASM,pdf
suffolk,2020-06-29,MTG,pdf
suffolk,2020-06-26,MTG,pdf
suffolk,2020-06-26,ASM,pdf
suffolk,2020-06-25,MTG,pdf
suffolk,2020-06-25,ASM,pdf
suffolk,2020-06-24,ASM,pdf
suffolk,2020-06-24,MTG,pdf
suffolk,2020-06-23,ASM,pdf
suffolk,2020-06-23,MTG,pdf
suffolk,2020-06-22,ASM,pdf
suffolk,2020-06-22,MTG,pdf
suffolk,2020-06-19,MTG,pdf
suffolk,2020-06-19,ASM,pdf
suffolk,2020-06-18,ASM,pdf
suffolk,2020-06-18,MTG,pdf
suffolk,2020-06-17,MTG,pdf
suffolk,2020-06-17,ASM,pdf
suffolk,2020-06-16,ASM,pdf
suffolk,2020-06-16,MTG,pdf
suffolk,2020-06-15,ASM,pdf
suffolk,2020-06-15,MTG,pdf
suffolk,2020-06-12,MTG,pdf
suffolk,2020-06-12,ASM,pdf
suffolk,2020-06-11,ASM,pdf
suffolk,2020-06-11,MTG,pdf
suffolk,2020-06-10,MTG,pdf
suffolk,2020-06-10,ASM,pdf
suffolk,2020-06-09,MTG,pdf
suffolk,2020-06-09,ASM,pdf
suffolk,2020-06-08,MTG,pdf
suffolk,2020-06-08,ASM,pdf
suffolk,2020-06-05,MTG,pdf
suffolk,2020-06-05,ASM,pdf
suffolk,2020-06-04,ASM,pdf
suffolk,2020-06-04,MTG,pdf
suffolk,2020-06-03,MTG,pdf
suffolk,2020-06-03,ASM,pdf
suffolk,2020-06-02,MTG,pdf
suffolk,2020-06-02,ASM,pdf
suffolk,2020-06-01,MTG,pdf
suffolk,2020-06-01,ASM,pdf
suffolk,2020-05-29,ASM,pdf
suffolk,2020-05-29,MTG,pdf
suffolk,2020-05-28,MTG,pdf
suffolk,2020-05-28,ASM,pdf
