County,FC_Recorded_Date,Transaction_Type,Scrape_Type
tarrant,2021-05-06,ASM,pdf
tarrant,2021-05-06,DEED,pdf
tarrant,2021-05-06,RLS,pdf
tarrant,2021-05-05,RLS,pdf
tarrant,2021-05-05,DEED,pdf
tarrant,2021-05-05,ASM,pdf
tarrant,2021-05-04,RLS,pdf
tarrant,2021-05-04,DEED,pdf
tarrant,2021-05-04,ASM,pdf
tarrant,2021-05-03,DEED,pdf
tarrant,2021-05-03,RLS,pdf
tarrant,2021-05-03,ASM,pdf
tarrant,2021-04-30,ASM,pdf
tarrant,2021-04-30,DT,pdf
tarrant,2021-04-30,RLS,pdf
tarrant,2021-04-30,DEED,pdf
tarrant,2021-04-29,RLS,pdf
tarrant,2021-04-29,ASM,pdf
tarrant,2021-04-29,DEED,pdf
tarrant,2021-04-29,DT,pdf
tarrant,2021-04-28,RLS,pdf
tarrant,2021-04-28,DT,pdf
tarrant,2021-04-28,ASM,pdf
tarrant,2021-04-28,DEED,pdf
tarrant,2021-04-27,ASM,pdf
tarrant,2021-04-27,RLS,pdf
tarrant,2021-04-27,DEED,pdf
tarrant,2021-04-27,DT,pdf
tarrant,2021-04-26,DT,pdf
tarrant,2021-04-26,ASM,pdf
tarrant,2021-04-26,DEED,pdf
tarrant,2021-04-26,RLS,pdf
tarrant,2021-04-23,DT,pdf
tarrant,2021-04-23,DEED,pdf
tarrant,2021-04-23,RLS,pdf
tarrant,2021-04-23,ASM,pdf
tarrant,2021-04-22,DT,pdf
tarrant,2021-04-22,DEED,pdf
tarrant,2021-04-22,ASM,pdf
tarrant,2021-04-22,RLS,pdf
tarrant,2021-04-21,RLS,pdf
tarrant,2021-04-21,DEED,pdf
tarrant,2021-04-21,ASM,pdf
tarrant,2021-04-21,DT,pdf
tarrant,2021-04-20,DT,pdf
tarrant,2021-04-20,ASM,pdf
tarrant,2021-04-20,DEED,pdf
tarrant,2021-04-20,RLS,pdf
tarrant,2021-04-19,DEED,pdf
tarrant,2021-04-19,ASM,pdf
tarrant,2021-04-19,RLS,pdf
tarrant,2021-04-19,DT,pdf
tarrant,2021-04-16,ASM,pdf
tarrant,2021-04-16,DEED,pdf
tarrant,2021-04-16,DT,pdf
tarrant,2021-04-16,RLS,pdf
tarrant,2021-04-15,DEED,pdf
tarrant,2021-04-15,DT,pdf
tarrant,2021-04-15,ASM,pdf
tarrant,2021-04-15,RLS,pdf
tarrant,2021-04-14,DEED,pdf
tarrant,2021-04-14,DT,pdf
tarrant,2021-04-14,RLS,pdf
tarrant,2021-04-14,ASM,pdf
tarrant,2021-04-13,RLS,pdf
tarrant,2021-04-13,DT,pdf
tarrant,2021-04-13,ASM,pdf
tarrant,2021-04-13,DEED,pdf
tarrant,2021-04-12,ASM,pdf
tarrant,2021-04-12,RLS,pdf
tarrant,2021-04-12,DEED,pdf
tarrant,2021-04-12,DT,pdf
tarrant,2021-04-09,DEED,pdf
tarrant,2021-04-09,RLS,pdf
tarrant,2021-04-09,DT,pdf
tarrant,2021-04-09,ASM,pdf
tarrant,2021-04-08,ASM,pdf
tarrant,2021-04-08,RLS,pdf
tarrant,2021-04-08,DT,pdf
tarrant,2021-04-08,DEED,pdf
tarrant,2021-04-07,RLS,pdf
tarrant,2021-04-07,DT,pdf
tarrant,2021-04-07,DEED,pdf
tarrant,2021-04-07,ASM,pdf
tarrant,2021-04-06,ASM,pdf
tarrant,2021-04-06,RLS,pdf
tarrant,2021-04-06,DT,pdf
tarrant,2021-04-06,DEED,pdf
tarrant,2021-04-05,ASM,pdf
tarrant,2021-04-05,DT,pdf
tarrant,2021-04-05,RLS,pdf
tarrant,2021-04-05,DEED,pdf
tarrant,2021-04-01,RLS,pdf
tarrant,2021-04-01,DEED,pdf
tarrant,2021-04-01,DT,pdf
tarrant,2021-04-01,ASM,pdf
tarrant,2021-03-31,DEED,pdf
tarrant,2021-03-31,ASM,pdf
tarrant,2021-03-31,DT,pdf
tarrant,2021-03-31,RLS,pdf
tarrant,2021-03-30,RLS,pdf
tarrant,2021-03-30,DT,pdf
tarrant,2021-03-30,ASM,pdf
tarrant,2021-03-30,DEED,pdf
tarrant,2021-03-26,DEED,pdf
tarrant,2021-03-26,RLS,pdf
tarrant,2021-03-26,DT,pdf
tarrant,2021-03-26,ASM,pdf
tarrant,2021-03-25,DT,pdf
tarrant,2021-03-25,DEED,pdf
tarrant,2021-03-25,RLS,pdf
tarrant,2021-03-25,ASM,pdf
tarrant,2021-03-24,RLS,pdf
tarrant,2021-03-24,DEED,pdf
tarrant,2021-03-24,DT,pdf
tarrant,2021-03-24,ASM,pdf
tarrant,2021-03-23,DT,pdf
tarrant,2021-03-23,DEED,pdf
tarrant,2021-03-23,ASM,pdf
tarrant,2021-03-23,RLS,pdf
tarrant,2021-03-22,DT,pdf
tarrant,2021-03-22,DEED,pdf
tarrant,2021-03-22,RLS,pdf
tarrant,2021-03-19,DT,pdf
tarrant,2021-03-19,DEED,pdf
tarrant,2021-03-19,ASM,pdf
tarrant,2021-03-19,RLS,pdf
tarrant,2021-03-18,ASM,pdf
tarrant,2021-03-18,DEED,pdf
tarrant,2021-03-18,DT,pdf
tarrant,2021-03-18,RLS,pdf
tarrant,2021-03-17,ASM,pdf
tarrant,2021-03-17,DEED,pdf
tarrant,2021-03-17,DT,pdf
tarrant,2021-03-17,RLS,pdf
tarrant,2021-03-16,ASM,pdf
tarrant,2021-03-16,DEED,pdf
tarrant,2021-03-16,RLS,pdf
tarrant,2021-03-16,DT,pdf
tarrant,2021-03-15,ASM,pdf
tarrant,2021-03-15,DEED,pdf
tarrant,2021-03-15,RLS,pdf
tarrant,2021-03-15,DT,pdf
tarrant,2021-03-12,DT,pdf
tarrant,2021-03-12,ASM,pdf
tarrant,2021-03-12,RLS,pdf
tarrant,2021-03-12,DEED,pdf
tarrant,2021-03-11,DEED,pdf
tarrant,2021-03-11,RLS,pdf
tarrant,2021-03-11,ASM,pdf
tarrant,2021-03-11,DT,pdf
tarrant,2021-03-10,DT,pdf
tarrant,2021-03-10,RLS,pdf
tarrant,2021-03-10,ASM,pdf
tarrant,2021-03-10,DEED,pdf
tarrant,2021-03-09,DEED,pdf
tarrant,2021-03-09,RLS,pdf
tarrant,2021-03-09,ASM,pdf
tarrant,2021-03-09,DT,pdf
tarrant,2021-03-08,DEED,pdf
tarrant,2021-03-08,DT,pdf
tarrant,2021-03-08,ASM,pdf
tarrant,2021-03-08,RLS,pdf
tarrant,2021-03-05,DEED,pdf
tarrant,2021-03-05,ASM,pdf
tarrant,2021-03-05,RLS,pdf
tarrant,2021-03-05,DT,pdf
tarrant,2021-03-04,DT,pdf
tarrant,2021-03-04,RLS,pdf
tarrant,2021-03-04,DEED,pdf
tarrant,2021-03-04,ASM,pdf
tarrant,2021-03-03,ASM,pdf
tarrant,2021-03-03,DEED,pdf
tarrant,2021-03-03,RLS,pdf
tarrant,2021-03-03,DT,pdf
tarrant,2021-03-02,RLS,pdf
tarrant,2021-03-02,ASM,pdf
tarrant,2021-03-02,DEED,pdf
tarrant,2021-03-02,DT,pdf
tarrant,2021-03-01,DT,pdf
tarrant,2021-03-01,ASM,pdf
tarrant,2021-03-01,DEED,pdf
tarrant,2021-03-01,RLS,pdf
tarrant,2021-02-26,DT,pdf
tarrant,2021-02-26,DEED,pdf
tarrant,2021-02-26,RLS,pdf
tarrant,2021-02-26,ASM,pdf
tarrant,2021-02-25,RLS,pdf
tarrant,2021-02-25,DT,pdf
tarrant,2021-02-25,ASM,pdf
tarrant,2021-02-25,DEED,pdf
tarrant,2021-02-24,ASM,pdf
tarrant,2021-02-24,RLS,pdf
tarrant,2021-02-24,DT,pdf
tarrant,2021-02-24,DEED,pdf
tarrant,2021-02-23,DT,pdf
tarrant,2021-02-23,DEED,pdf
tarrant,2021-02-23,ASM,pdf
tarrant,2021-02-23,RLS,pdf
tarrant,2021-02-22,DT,pdf
tarrant,2021-02-22,ASM,pdf
tarrant,2021-02-22,DEED,pdf
tarrant,2021-02-22,RLS,pdf
tarrant,2021-02-12,RLS,pdf
tarrant,2021-02-12,DEED,pdf
tarrant,2021-02-12,ASM,pdf
tarrant,2021-02-12,DT,pdf
tarrant,2021-02-11,DEED,pdf
tarrant,2021-02-11,ASM,pdf
tarrant,2021-02-11,DT,pdf
tarrant,2021-02-11,RLS,pdf
tarrant,2021-02-10,DT,pdf
tarrant,2021-02-10,RLS,pdf
tarrant,2021-02-10,DEED,pdf
tarrant,2021-02-10,ASM,pdf
tarrant,2021-02-09,ASM,pdf
tarrant,2021-02-09,DEED,pdf
tarrant,2021-02-09,RLS,pdf
tarrant,2021-02-09,DT,pdf
tarrant,2021-02-08,RLS,pdf
tarrant,2021-02-08,DEED,pdf
tarrant,2021-02-08,DT,pdf
tarrant,2021-02-08,ASM,pdf
tarrant,2021-02-05,DEED,pdf
tarrant,2021-02-05,DT,pdf
tarrant,2021-02-05,RLS,pdf
tarrant,2021-02-05,ASM,pdf
tarrant,2021-02-04,DT,pdf
tarrant,2021-02-04,DEED,pdf
tarrant,2021-02-04,ASM,pdf
tarrant,2021-02-04,RLS,pdf
tarrant,2021-02-03,ASM,pdf
tarrant,2021-02-03,DEED,pdf
tarrant,2021-02-03,RLS,pdf
tarrant,2021-02-03,DT,pdf
tarrant,2021-02-02,ASM,pdf
tarrant,2021-02-02,DEED,pdf
tarrant,2021-02-02,DT,pdf
tarrant,2021-02-02,RLS,pdf
tarrant,2021-02-01,DT,pdf
tarrant,2021-02-01,DEED,pdf
tarrant,2021-02-01,ASM,pdf
tarrant,2021-02-01,RLS,pdf
tarrant,2021-01-29,ASM,pdf
tarrant,2021-01-29,DT,pdf
tarrant,2021-01-29,RLS,pdf
tarrant,2021-01-29,DEED,pdf
tarrant,2021-01-28,DEED,pdf
tarrant,2021-01-28,DT,pdf
tarrant,2021-01-28,RLS,pdf
tarrant,2021-01-28,ASM,pdf
tarrant,2021-01-27,ASM,pdf
tarrant,2021-01-27,DEED,pdf
tarrant,2021-01-27,DT,pdf
tarrant,2021-01-27,RLS,pdf
tarrant,2021-01-26,DT,pdf
tarrant,2021-01-26,RLS,pdf
tarrant,2021-01-26,DEED,pdf
tarrant,2021-01-26,ASM,pdf
tarrant,2021-01-25,RLS,pdf
tarrant,2021-01-25,DEED,pdf
tarrant,2021-01-25,DT,pdf
tarrant,2021-01-25,ASM,pdf
tarrant,2021-01-22,DEED,pdf
tarrant,2021-01-22,DT,pdf
tarrant,2021-01-22,ASM,pdf
tarrant,2021-01-22,RLS,pdf
tarrant,2021-01-21,ASM,pdf
tarrant,2021-01-21,RLS,pdf
tarrant,2021-01-21,DEED,pdf
tarrant,2021-01-21,DT,pdf
tarrant,2021-01-20,DT,pdf
tarrant,2021-01-20,DEED,pdf
tarrant,2021-01-20,ASM,pdf
tarrant,2021-01-20,RLS,pdf
tarrant,2021-01-19,DEED,pdf
tarrant,2021-01-19,ASM,pdf
tarrant,2021-01-19,RLS,pdf
tarrant,2021-01-15,RLS,pdf
tarrant,2021-01-15,DEED,pdf
tarrant,2021-01-15,DT,pdf
tarrant,2021-01-15,ASM,pdf
tarrant,2021-01-14,ASM,pdf
tarrant,2021-01-14,RLS,pdf
tarrant,2021-01-14,DT,pdf
tarrant,2021-01-14,DEED,pdf
tarrant,2021-01-13,DEED,pdf
tarrant,2021-01-13,DT,pdf
tarrant,2021-01-13,RLS,pdf
tarrant,2021-01-13,ASM,pdf
tarrant,2021-01-12,DT,pdf
tarrant,2021-01-12,RLS,pdf
tarrant,2021-01-12,DEED,pdf
tarrant,2021-01-12,ASM,pdf
tarrant,2021-01-11,ASM,pdf
tarrant,2021-01-11,DEED,pdf
tarrant,2021-01-11,DT,pdf
tarrant,2021-01-11,RLS,pdf
tarrant,2021-01-08,DEED,pdf
tarrant,2021-01-08,DT,pdf
tarrant,2021-01-08,ASM,pdf
tarrant,2021-01-08,RLS,pdf
tarrant,2021-01-07,RLS,pdf
tarrant,2021-01-07,ASM,pdf
tarrant,2021-01-07,DEED,pdf
tarrant,2021-01-07,DT,pdf
tarrant,2021-01-06,RLS,pdf
tarrant,2021-01-06,DT,pdf
tarrant,2021-01-06,ASM,pdf
tarrant,2021-01-06,DEED,pdf
tarrant,2021-01-05,ASM,pdf
tarrant,2021-01-05,DT,pdf
tarrant,2021-01-05,RLS,pdf
tarrant,2021-01-05,DEED,pdf
tarrant,2021-01-04,RLS,pdf
tarrant,2021-01-04,DEED,pdf
tarrant,2021-01-04,DT,pdf
tarrant,2021-01-04,ASM,pdf
tarrant,2020-12-31,DEED,pdf
tarrant,2020-12-31,ASM,pdf
tarrant,2020-12-31,RLS,pdf
tarrant,2020-12-30,DEED,pdf
tarrant,2020-12-30,ASM,pdf
tarrant,2020-12-30,RLS,pdf
tarrant,2020-12-29,RLS,pdf
tarrant,2020-12-29,DEED,pdf
tarrant,2020-12-29,ASM,pdf
tarrant,2020-12-28,RLS,pdf
tarrant,2020-12-28,DEED,pdf
tarrant,2020-12-28,ASM,pdf
tarrant,2020-12-24,DEED,pdf
tarrant,2020-12-24,RLS,pdf
tarrant,2020-12-23,ASM,pdf
tarrant,2020-12-23,DEED,pdf
tarrant,2020-12-23,RLS,pdf
tarrant,2020-12-22,ASM,pdf
tarrant,2020-12-22,RLS,pdf
tarrant,2020-12-22,DEED,pdf
tarrant,2020-12-21,DEED,pdf
tarrant,2020-12-21,ASM,pdf
tarrant,2020-12-21,RLS,pdf
tarrant,2020-12-18,DEED,pdf
tarrant,2020-12-18,ASM,pdf
tarrant,2020-12-18,RLS,pdf
tarrant,2020-12-17,DEED,pdf
tarrant,2020-12-17,ASM,pdf
tarrant,2020-12-17,RLS,pdf
tarrant,2020-12-16,ASM,pdf
tarrant,2020-12-16,DT,pdf
tarrant,2020-12-16,DEED,pdf
tarrant,2020-12-16,RLS,pdf
tarrant,2020-12-15,DEED,pdf
tarrant,2020-12-15,ASM,pdf
tarrant,2020-12-15,RLS,pdf
tarrant,2020-12-14,RLS,pdf
tarrant,2020-12-14,DT,pdf
tarrant,2020-12-14,DEED,pdf
tarrant,2020-12-14,ASM,pdf
tarrant,2020-12-11,DEED,pdf
tarrant,2020-12-11,ASM,pdf
tarrant,2020-12-11,RLS,pdf
tarrant,2020-12-10,ASM,pdf
tarrant,2020-12-10,DEED,pdf
tarrant,2020-12-10,DT,pdf
tarrant,2020-12-10,RLS,pdf
tarrant,2020-12-09,ASM,pdf
tarrant,2020-12-09,DT,pdf
tarrant,2020-12-09,RLS,pdf
tarrant,2020-12-09,DEED,pdf
tarrant,2020-12-08,DEED,pdf
tarrant,2020-12-08,RLS,pdf
tarrant,2020-12-08,ASM,pdf
tarrant,2020-12-07,DEED,pdf
tarrant,2020-12-07,ASM,pdf
tarrant,2020-12-07,DT,pdf
tarrant,2020-12-07,RLS,pdf
tarrant,2020-12-04,RLS,pdf
tarrant,2020-12-04,DEED,pdf
tarrant,2020-12-04,DT,pdf
tarrant,2020-12-04,ASM,pdf
tarrant,2020-12-03,DEED,pdf
tarrant,2020-12-03,ASM,pdf
tarrant,2020-12-03,DT,pdf
tarrant,2020-12-03,RLS,pdf
tarrant,2020-12-02,DT,pdf
tarrant,2020-12-02,DEED,pdf
tarrant,2020-12-02,ASM,pdf
tarrant,2020-12-02,RLS,pdf
tarrant,2020-12-01,RLS,pdf
tarrant,2020-12-01,DEED,pdf
tarrant,2020-12-01,DT,pdf
tarrant,2020-12-01,ASM,pdf
tarrant,2020-11-30,DT,pdf
tarrant,2020-11-30,DEED,pdf
tarrant,2020-11-30,ASM,pdf
tarrant,2020-11-30,RLS,pdf
tarrant,2020-11-25,DEED,pdf
tarrant,2020-11-25,ASM,pdf
tarrant,2020-11-25,DT,pdf
tarrant,2020-11-25,RLS,pdf
tarrant,2020-11-24,RLS,pdf
tarrant,2020-11-24,DEED,pdf
tarrant,2020-11-24,ASM,pdf
tarrant,2020-11-24,DT,pdf
tarrant,2020-11-23,ASM,pdf
tarrant,2020-11-23,DEED,pdf
tarrant,2020-11-23,DT,pdf
tarrant,2020-11-23,RLS,pdf
tarrant,2020-11-20,ASM,pdf
tarrant,2020-11-20,DEED,pdf
tarrant,2020-11-20,RLS,pdf
tarrant,2020-11-20,DT,pdf
tarrant,2020-11-19,DT,pdf
tarrant,2020-11-19,DEED,pdf
tarrant,2020-11-19,ASM,pdf
tarrant,2020-11-19,RLS,pdf
tarrant,2020-11-18,DEED,pdf
tarrant,2020-11-18,RLS,pdf
tarrant,2020-11-18,DT,pdf
tarrant,2020-11-18,ASM,pdf
tarrant,2020-11-17,DT,pdf
tarrant,2020-11-17,ASM,pdf
tarrant,2020-11-17,DEED,pdf
tarrant,2020-11-17,RLS,pdf
tarrant,2020-11-16,RLS,pdf
tarrant,2020-11-16,ASM,pdf
tarrant,2020-11-16,DEED,pdf
tarrant,2020-11-16,DT,pdf
tarrant,2020-11-13,DEED,pdf
tarrant,2020-11-13,DT,pdf
tarrant,2020-11-13,ASM,pdf
tarrant,2020-11-13,RLS,pdf
tarrant,2020-11-12,DEED,pdf
tarrant,2020-11-12,RLS,pdf
tarrant,2020-11-12,DT,pdf
tarrant,2020-11-12,ASM,pdf
tarrant,2020-11-11,ASM,pdf
tarrant,2020-11-11,DT,pdf
tarrant,2020-11-11,RLS,pdf
tarrant,2020-11-11,DEED,pdf
tarrant,2020-11-10,DEED,pdf
tarrant,2020-11-10,DT,pdf
tarrant,2020-11-10,ASM,pdf
tarrant,2020-11-10,RLS,pdf
tarrant,2020-11-09,DEED,pdf
tarrant,2020-11-09,ASM,pdf
tarrant,2020-11-09,DT,pdf
tarrant,2020-11-09,RLS,pdf
tarrant,2020-11-06,DT,pdf
tarrant,2020-11-06,DEED,pdf
tarrant,2020-11-06,ASM,pdf
tarrant,2020-11-06,RLS,pdf
tarrant,2020-11-05,DT,pdf
tarrant,2020-11-05,DEED,pdf
tarrant,2020-11-05,ASM,pdf
tarrant,2020-11-05,RLS,pdf
tarrant,2020-11-04,DEED,pdf
tarrant,2020-11-04,ASM,pdf
tarrant,2020-11-04,RLS,pdf
tarrant,2020-11-04,DT,pdf
tarrant,2020-11-03,DEED,pdf
tarrant,2020-11-03,ASM,pdf
tarrant,2020-11-03,DT,pdf
tarrant,2020-11-03,RLS,pdf
tarrant,2020-11-02,DEED,pdf
tarrant,2020-11-02,ASM,pdf
tarrant,2020-11-02,DT,pdf
tarrant,2020-11-02,RLS,pdf
tarrant,2020-11-01,DEED,pdf
tarrant,2020-11-01,RLS,pdf
tarrant,2020-10-30,RLS,pdf
tarrant,2020-10-30,ASM,pdf
tarrant,2020-10-30,DEED,pdf
tarrant,2020-10-30,DT,pdf
tarrant,2020-10-29,ASM,pdf
tarrant,2020-10-29,DEED,pdf
tarrant,2020-10-29,DT,pdf
tarrant,2020-10-29,RLS,pdf
tarrant,2020-10-28,DT,pdf
tarrant,2020-10-28,DEED,pdf
tarrant,2020-10-28,RLS,pdf
tarrant,2020-10-28,ASM,pdf
tarrant,2020-10-27,DT,pdf
tarrant,2020-10-27,RLS,pdf
tarrant,2020-10-27,DEED,pdf
tarrant,2020-10-27,ASM,pdf
tarrant,2020-10-26,ASM,pdf
tarrant,2020-10-26,DEED,pdf
tarrant,2020-10-26,DT,pdf
tarrant,2020-10-26,RLS,pdf
tarrant,2020-10-23,RLS,pdf
tarrant,2020-10-23,DT,pdf
tarrant,2020-10-23,DEED,pdf
tarrant,2020-10-23,ASM,pdf
tarrant,2020-10-22,DEED,pdf
tarrant,2020-10-22,RLS,pdf
tarrant,2020-10-22,ASM,pdf
tarrant,2020-10-22,DT,pdf
tarrant,2020-10-21,RLS,pdf
tarrant,2020-10-21,DEED,pdf
